Oportunidades y limitaciones del an치lisis de texto con R:
…
# La funci칩n get_sentiments()

```r
tay_sentiment <- tidy_taylor%>%
  inner_join(get_sentiments("bing"))%>% 
  count(album, track_title, sentiment) %>%
  spread(sentiment, n, fill = 0) %>%
  mutate(sentiment = positive - negative)

tay_sentiment
```

```
## # A tibble: 94 x 5
##    album track_title                negative positive sentiment
##    <chr> <chr>                         <dbl>    <dbl>     <dbl>
##  1 1989  All You Had to Do Was Stay        1        6         5
##  2 1989  Bad Blood                        28       10       -18
##  3 1989  Blank Space                      32       19       -13
##  4 1989  Clean                            19       12        -7
##  5 1989  How You Get the Girl             11        0       -11
##  6 1989  I Know Places                    10        2        -8
##  7 1989  I Wish You Would                 16        4       -12
##  8 1989  New Romantics                    12        8        -4
##  9 1989  Out of the Woods                  3        1        -2
## 10 1989  Shake It Off                    137        0      -137
## # ... with 84 more rows
```
…
